…
Get detailed information about all the hydro sites:

``` r
hydat_station_info()
#> # A tibble: 1,000 x 17
#>    STATION_NUMBER                                           STATION_NAME
#>             <chr>                                                  <chr>
#>  1        01AA002        DAAQUAM (RIVIERE) EN AVAL DE LA RIVIERE SHIDGEL
#>  2        01AD001      MADAWASKA (RIVIER) EN AVAL DU BARRAGE TEMISCOUATA
#>  3        01AD002                          SAINT JOHN RIVER AT FORT KENT
#>  4        01AD003            ST. FRANCIS RIVER AT OUTLET OF GLASIER LAKE
#>  5        01AD004                         SAINT JOHN RIVER AT EDMUNDSTON
#>  6        01AD005           MADAWASKA (RIVIERE) AU RESERVOIR TEMISCOUATA
#>  7        01AD008                         LONG (LAC) PRES DE LES ETROITS
#>  8        01AD009                           CABANO (RIVIERE) AU LAC LONG
#>  9        01AD012 SAINT-FRANCOIS (RIVIERE) EN AVAL DU LAC SAINT-FRANCOIS
#> 10        01AD013 SAINT-FRANCOIS (RIVIERE) EN AVAL DU LAC SAINT-FRANCOIS
#> # ... with 990 more rows, and 15 more variables:
#> #   PROV_TERR_STATE_LOC <chr>, LATITUDE <dbl>, LONGITUDE <dbl>,
#> #   DRAINAGE_AREA_GROSS <dbl>, DRAINAGE_AREA_EFFECT <dbl>,
#> #   STATUS_EN_HYD <chr>, STATUS_EN_SED <chr>,
#> #   REGIONAL_OFFICE_NAME_EN <chr>, AGENCY_EN_CONTRIBUTOR <chr>,
#> #   AGENCY_EN_OPERATOR <chr>, RHBN <int>, REAL_TIME <int>, DATUM_ID <int>,
#> #   FIRST_YEAR <int>, LAST_YEAR <int>
```

Extracting Data
---------------

The following methods extract data from the database given the correct station number:

``` r
hydat_flow_monthly("01AD001")
#> # A tibble: 880 x 9
#>    STATION_NUMBER                                      STATION_NAME  YEAR
#>             <chr>                                             <chr> <int>
#>  1        01AD001 MADAWASKA (RIVIER) EN AVAL DU BARRAGE TEMISCOUATA  1918
#>  2        01AD001 MADAWASKA (RIVIER) EN AVAL DU BARRAGE TEMISCOUATA  1918
#>  3        01AD001 MADAWASKA (RIVIER) EN AVAL DU BARRAGE TEMISCOUATA  1918
#>  4        01AD001 MADAWASKA (RIVIER) EN AVAL DU BARRAGE TEMISCOUATA  1918
#>  5        01AD001 MADAWASKA (RIVIER) EN AVAL DU BARRAGE TEMISCOUATA  1919
#>  6        01AD001 MADAWASKA (RIVIER) EN AVAL DU BARRAGE TEMISCOUATA  1919
#>  7        01AD001 MADAWASKA (RIVIER) EN AVAL DU BARRAGE TEMISCOUATA  1919
#>  8        01AD001 MADAWASKA (RIVIER) EN AVAL DU BARRAGE TEMISCOUATA  1919
#>  9        01AD001 MADAWASKA (RIVIER) EN AVAL DU BARRAGE TEMISCOUATA  1919
#> 10        01AD001 MADAWASKA (RIVIER) EN AVAL DU BARRAGE TEMISCOUATA  1919
#> # ... with 870 more rows, and 6 more variables: MONTH <int>, DATE <date>,
#> #   MONTHLY_MEAN <dbl>, MONTHLY_TOTAL <dbl>, DAILY_MIN <dbl>,
#> #   DAILY_MAX <dbl>
hydat_flow_daily("01AD001")
#> # A tibble: 26,785 x 8
#>    STATION_NUMBER                                      STATION_NAME  YEAR
#>             <chr>                                             <chr> <int>
#>  1        01AD001 MADAWASKA (RIVIER) EN AVAL DU BARRAGE TEMISCOUATA  1918
#>  2        01AD001 MADAWASKA (RIVIER) EN AVAL DU BARRAGE TEMISCOUATA  1918
#>  3        01AD001 MADAWASKA (RIVIER) EN AVAL DU BARRAGE TEMISCOUATA  1918
#>  4        01AD001 MADAWASKA (RIVIER) EN AVAL DU BARRAGE TEMISCOUATA  1918
#>  5        01AD001 MADAWASKA (RIVIER) EN AVAL DU BARRAGE TEMISCOUATA  1919
#>  6        01AD001 MADAWASKA (RIVIER) EN AVAL DU BARRAGE TEMISCOUATA  1919
#>  7        01AD001 MADAWASKA (RIVIER) EN AVAL DU BARRAGE TEMISCOUATA  1919
#>  8        01AD001 MADAWASKA (RIVIER) EN AVAL DU BARRAGE TEMISCOUATA  1919
#>  9        01AD001 MADAWASKA (RIVIER) EN AVAL DU BARRAGE TEMISCOUATA  1919
#> 10        01AD001 MADAWASKA (RIVIER) EN AVAL DU BARRAGE TEMISCOUATA  1919
#> # ... with 26,775 more rows, and 5 more variables: MONTH <int>, DAY <int>,
#> #   DATE <date>, FLOW <dbl>, FLOW_SYMBOL <chr>
hydat_level_monthly("01AD003")
#> # A tibble: 60 x 9
#>    STATION_NUMBER                                STATION_NAME  YEAR MONTH
#>             <chr>                                       <chr> <int> <int>
#>  1        01AD003 ST. FRANCIS RIVER AT OUTLET OF GLASIER LAKE  2011     1
#>  2        01AD003 ST. FRANCIS RIVER AT OUTLET OF GLASIER LAKE  2011     2
#>  3        01AD003 ST. FRANCIS RIVER AT OUTLET OF GLASIER LAKE  2011     3
#>  4        01AD003 ST. FRANCIS RIVER AT OUTLET OF GLASIER LAKE  2011     4
#>  5        01AD003 ST. FRANCIS RIVER AT OUTLET OF GLASIER LAKE  2011     5
#>  6        01AD003 ST. FRANCIS RIVER AT OUTLET OF GLASIER LAKE  2011     6
#>  7        01AD003 ST. FRANCIS RIVER AT OUTLET OF GLASIER LAKE  2011     7
#>  8        01AD003 ST. FRANCIS RIVER AT OUTLET OF GLASIER LAKE  2011     8
#>  9        01AD003 ST. FRANCIS RIVER AT OUTLET OF GLASIER LAKE  2011     9
#> 10        01AD003 ST. FRANCIS RIVER AT OUTLET OF GLASIER LAKE  2011    10
#> # ... with 50 more rows, and 5 more variables: DATE <date>,
#> #   MONTHLY_MEAN <dbl>, MONTHLY_TOTAL <dbl>, DAILY_MIN <dbl>,
#> #   DAILY_MAX <dbl>
hydat_level_daily("01AD003")
#> # A tibble: 1,826 x 8
#>    STATION_NUMBER                                STATION_NAME  YEAR MONTH
#>             <chr>                                       <chr> <int> <int>
#>  1        01AD003 ST. FRANCIS RIVER AT OUTLET OF GLASIER LAKE  2011     1
#>  2        01AD003 ST. FRANCIS RIVER AT OUTLET OF GLASIER LAKE  2011     2
#>  3        01AD003 ST. FRANCIS RIVER AT OUTLET OF GLASIER LAKE  2011     3
#>  4        01AD003 ST. FRANCIS RIVER AT OUTLET OF GLASIER LAKE  2011     4
#>  5        01AD003 ST. FRANCIS RIVER AT OUTLET OF GLASIER LAKE  2011     5
#>  6        01AD003 ST. FRANCIS RIVER AT OUTLET OF GLASIER LAKE  2011     6
#>  7        01AD003 ST. FRANCIS RIVER AT OUTLET OF GLASIER LAKE  2011     7
#>  8        01AD003 ST. FRANCIS RIVER AT OUTLET OF GLASIER LAKE  2011     8
#>  9        01AD003 ST. FRANCIS RIVER AT OUTLET OF GLASIER LAKE  2011     9
#> 10        01AD003 ST. FRANCIS RIVER AT OUTLET OF GLASIER LAKE  2011    10
#> # ... with 1,816 more rows, and 4 more variables: DAY <int>, DATE <date>,
#> #   LEVEL <dbl>, LEVEL_SYMBOL <chr>
hydat_sed_monthly("01AF006")
#> # A tibble: 26 x 9
#>    STATION_NUMBER                           STATION_NAME  YEAR MONTH
#>             <chr>                                  <chr> <int> <int>
#>  1        01AF006 BLACK BROOK NEAR ST-ANDRE-DE-MADAWASKA  1971     4
#>  2        01AF006 BLACK BROOK NEAR ST-ANDRE-DE-MADAWASKA  1971     5
#>  3        01AF006 BLACK BROOK NEAR ST-ANDRE-DE-MADAWASKA  1971     6
#>  4        01AF006 BLACK BROOK NEAR ST-ANDRE-DE-MADAWASKA  1971     7
#>  5        01AF006 BLACK BROOK NEAR ST-ANDRE-DE-MADAWASKA  1971     8
#>  6        01AF006 BLACK BROOK NEAR ST-ANDRE-DE-MADAWASKA  1971     9
#>  7        01AF006 BLACK BROOK NEAR ST-ANDRE-DE-MADAWASKA  1972     4
#>  8        01AF006 BLACK BROOK NEAR ST-ANDRE-DE-MADAWASKA  1972     5
#>  9        01AF006 BLACK BROOK NEAR ST-ANDRE-DE-MADAWASKA  1972     6
#> 10        01AF006 BLACK BROOK NEAR ST-ANDRE-DE-MADAWASKA  1972     7
#> # ... with 16 more rows, and 5 more variables: DATE <date>,
#> #   MONTHLY_MEAN <dbl>, MONTHLY_TOTAL <dbl>, DAILY_MIN <dbl>,
#> #   DAILY_MAX <dbl>
hydat_sed_daily("01AF006")
#> # A tibble: 794 x 7
#>    STATION_NUMBER                           STATION_NAME  YEAR MONTH   DAY
#>             <chr>                                  <chr> <int> <int> <int>
#>  1        01AF006 BLACK BROOK NEAR ST-ANDRE-DE-MADAWASKA  1971     4     1
#>  2        01AF006 BLACK BROOK NEAR ST-ANDRE-DE-MADAWASKA  1971     5     1
#>  3        01AF006 BLACK BROOK NEAR ST-ANDRE-DE-MADAWASKA  1971     6     1
#>  4        01AF006 BLACK BROOK NEAR ST-ANDRE-DE-MADAWASKA  1971     7     1
#>  5        01AF006 BLACK BROOK NEAR ST-ANDRE-DE-MADAWASKA  1971     8     1
#>  6        01AF006 BLACK BROOK NEAR ST-ANDRE-DE-MADAWASKA  1971     9     1
#>  7        01AF006 BLACK BROOK NEAR ST-ANDRE-DE-MADAWASKA  1972     4     1
#>  8        01AF006 BLACK BROOK NEAR ST-ANDRE-DE-MADAWASKA  1972     5     1
#>  9        01AF006 BLACK BROOK NEAR ST-ANDRE-DE-MADAWASKA  1972     6     1
#> 10        01AF006 BLACK BROOK NEAR ST-ANDRE-DE-MADAWASKA  1972     7     1
#> # ... with 784 more rows, and 2 more variables: DATE <date>, LOAD <dbl>
```
…
Because the package is built on `dplyr`, using `dplyr` functions is a particularly good way to get the most out of the database.

``` r
library(dplyr)
peaks <- hydat_tbl("ANNUAL_INSTANT_PEAKS") %>%
  left_join(hydat_tbl("PEAK_CODES")) %>%
  collect() %>%
  mutate(DATE = lubridate::ymd(paste(YEAR, MONTH, DAY))) %>%
  select(STATION_NUMBER, DATE, PEAK_CODE = PEAK_EN, PEAK)
#> Warning: 7 failed to parse.
peaks
#> # A tibble: 1,000 x 4
#>    STATION_NUMBER       DATE PEAK_CODE     PEAK
#>             <chr>     <date>     <chr>    <dbl>
#>  1        01AD002 1940-05-05   Maximum 2460.000
#>  2        01AD002 1950-04-23   Maximum 1890.000
#>  3        01AD002 1960-05-08   Maximum 2580.000
#>  4        01AD002 1970-05-03   Maximum 2690.000
#>  5        01AD002 1980-04-16   Maximum 1590.000
#>  6        01AD003 1960-05-12   Maximum  203.000
#>  7        01AD003 1970-05-04   Maximum  251.000
#>  8        01AD003 1980-04-18   Maximum  125.000
#>  9        01AD004 1970-05-03   Maximum 2810.000
#> 10        01AD004 1980-12-13   Maximum  138.457
#> # ... with 990 more rows
```
…
